…
Mixtures of Regressions

The next example in the paper is the patent data in Wang et al. (1998). The help file ?patent notes that the data consists of the number of patents, R&D spending and sales in millions of dollar for 70 pharmaceutical and biomedical companies in 1976, taken from the National Bureau of Economic Research R&D Masterfile.

Quick EDA

The dependant variable here is Patents. Independant variable is lgRD which is the log of R&D spending. The objective in this exercise is to try and find how many may clusters exist within this bi-variate dataset. When I started this exercise, it seemed quite moot to me, since visually, I couldn’t really tell any distict clusters. But, the results show otherwise.

data("patent")
df_patent <- tbl_df(patent)
df_patent

## # A tibble: 70 x 4
##                                     Company Patents    RDS    lgRD
##  *                                    <chr>   <int>  <dbl>   <dbl>
##  1 ABBOTT LABORATORIES                           42 0.0549  4.0869
##  2 AFFILIATED HOSPITAL PRDS                       1 0.0032 -2.0794
##  3 ALBERTO-CULVER CO                              3 0.0078  0.1187
##  4 ALCON LABORATORIES                             2 0.0803  1.8796
##  5 ALLERGAN PHARMACEUTICALS INC                   3 0.0686  1.1033
##  6 ALZA CORP-CL A                                40 3.3319  2.0794
##  7 AMERICAN HOME PRODUCTS CORP                   60 0.0243  4.0953
##  8 AMERICAN HOSPITAL SUPPLY                      30 0.0128  2.8333
##  9 AMERICAN STERILIZER CO                         7 0.0252  1.3915
## 10 AVON PRODUCTS                                  3 0.0094  2.6048
## # ... with 60 more rows
…
